{
    "queueSize": "Queue size in bytes",
    "numCallsInGeneralQueue": "The number of currently enqueued user requests",
    "numCallsInReplicationQueue": "The number of currently enqueued operations received from replication",
    "numCallsInPriorityQueue": "The number of currently enqueued priority (internal housekeeping) requests",
    "numOpenConnections": "The number of open connections at the RPC layer",
    "numActiveHandler": "The number of RPC handlers actively servicing requests",
    "numGeneralCallsDropped": "The numbser of dropped general calls",
    "numLifoModeSwitches": "The number of lifo mode switches",
    "receivedBytes": "Received bytes",
    "exceptions.RegionMovedException": "Number of region moved exception",
    "authenticationSuccesses": "Number of client connections where authentication succeeded",
    "authorizationFailures": "Number of client connection authentication failures",
    "TotalCallTime_num_ops": "Total number of call time operations",
    "TotalCallTime_min": "Min of call time operations",
    "TotalCallTime_max": "Max of call time operations",
    "TotalCallTime_mean": "Mean of call time operations",
    "TotalCallTime_25th_percentile": "25% of call time operations",
    "TotalCallTime_median": "median of call time operations",
    "TotalCallTime_75th_percentile": "75% of call time operations",
    "TotalCallTime_90th_percentile": "90% of call time operations",
    "TotalCallTime_95th_percentile": "95% of call time operations",
    "TotalCallTime_98th_percentile": "98% of call time operations",
    "TotalCallTime_99th_percentile": "99% of call time operations",
    "TotalCallTime_99.9th_percentile": "99_9% of call time operations",
    "exceptions.RegionTooBusyException": "Number of region too busy exception",
    "exceptions.FailedSanityCheckException": "Number of failed sanity check exception",
    "ResponseSize_num_ops": "Total number of response size operations",
    "ResponseSize_min": "Min of response size in bytes",
    "ResponseSize_max": "Max of response size in bytes",
    "ResponseSize_mean": "Mean of response size in bytes",
    "ResponseSize_25th_percentile": "25% of response size in bytes",
    "ResponseSize_median": "Median of response size in bytes",
    "ResponseSize_75th_percentile": "75% of response size in bytes",
    "ResponseSize_90th_percentile": "90% of response size in bytes",
    "ResponseSize_95th_percentile": "95% of response size in bytes",
    "ResponseSize_98th_percentile": "98% of response size in bytes",
    "ResponseSize_99th_percentile": "99% of response size in bytes",
    "ResponseSize_99.9th_percentile": "99_9% of response size in bytes",
    "exceptions.UnknownScannerException": "Number of unknown scanner exception",
    "exceptions.OutOfOrderScannerNextException": "Number of out of order scanner next exception",
    "exceptions": "Number of all kinds of exceptions",
    "ProcessCallTime_num_ops": "Number of process call time operations",
    "ProcessCallTime_min": "Min of process call time in milliseconds",
    "ProcessCallTime_max": "Max of process call time in milliseconds",
    "ProcessCallTime_mean": "Mean of process call time in milliseconds",
    "ProcessCallTime_25th_percentile": "25% of process call time in milliseconds",
    "ProcessCallTime_median": "Median of process call time in milliseconds",
    "ProcessCallTime_75th_percentile": "75% of process call time in milliseconds",
    "ProcessCallTime_90th_percentile": "90% of process call time in milliseconds",
    "ProcessCallTime_95th_percentile": "95% of process call time in milliseconds",
    "ProcessCallTime_98th_percentile": "98% of process call time in milliseconds",
    "ProcessCallTime_99th_percentile": "99% of process call time in milliseconds",
    "ProcessCallTime_99.9th_percentile": "99_9% of process call time in milliseconds",
    "exceptions.NotServingRegionException": "Number of not serving region exception",
    "authorizationSuccesses": "Number of authorization sucesses",
    "exceptions.ScannerResetException": "Number of scanner reset exception",
    "RequestSize_num_ops": "Total number of request size operations",
    "RequestSize_min": "Min of request size in bytes",
    "RequestSize_max": "Max of request size in bytes",
    "RequestSize_mean": "Mean of request size in bytes",
    "RequestSize_25th_percentile": "25% of request size in bytes",
    "RequestSize_median": "Median of request size in bytes",
    "RequestSize_75th_percentile": "75% of request size in bytes",
    "RequestSize_90th_percentile": "90% of request size in bytes",
    "RequestSize_95th_percentile": "95% of request size in bytes",
    "RequestSize_98th_percentile": "98% of request size in bytes",
    "RequestSize_99th_percentile": "99% of request size in bytes",
    "RequestSize_99.9th_percentile": "99_9% of request size in bytes",
    "sentBytes": "Total number of send bytes",
    "QueueCallTime_num_ops": "Number of queue call time operations",
    "QueueCallTime_min": "Min of queue call time in milliseconds",
    "QueueCallTime_max": "Max of queue call time in milliseconds",
    "QueueCallTime_mean": "Mean of queue call time in milliseconds",
    "QueueCallTime_25th_percentile": "25% of queue call time in milliseconds",
    "QueueCallTime_median": "Median of queue call time in milliseconds",
    "QueueCallTime_75th_percentile": "75% of queue call time in milliseconds",
    "QueueCallTime_90th_percentile": "90% of queue call time in milliseconds",
    "QueueCallTime_95th_percentile": "95% of queue call time in milliseconds",
    "QueueCallTime_98th_percentile": "98% of queue call time in milliseconds",
    "QueueCallTime_99th_percentile": "99% of queue call time in milliseconds",
    "QueueCallTime_99.9th_percentile": "99_9% of queue call time in milliseconds",
    "authenticationFailures": "Number of authentication failures"
}