{
    "AppendSize_num_ops": "Descriptions of the metric",
    "AppendSize_min": "Descriptions of the metric",
    "AppendSize_max": "Descriptions of the metric",
    "AppendSize_mean": "Descriptions of the metric",
    "AppendSize_25th_percentile": "Descriptions of the metric",
    "AppendSize_median": "Descriptions of the metric",
    "AppendSize_75th_percentile": "Descriptions of the metric",
    "AppendSize_90th_percentile": "Descriptions of the metric",
    "AppendSize_95th_percentile": "Descriptions of the metric",
    "AppendSize_98th_percentile": "Descriptions of the metric",
    "AppendSize_99th_percentile": "Descriptions of the metric",
    "AppendSize_99.9th_percentile": "Descriptions of the metric",
    "SyncTime_num_ops": "Descriptions of the metric",
    "SyncTime_min": "Descriptions of the metric",
    "SyncTime_max": "Descriptions of the metric",
    "SyncTime_mean": "Descriptions of the metric",
    "SyncTime_25th_percentile": "Descriptions of the metric",
    "SyncTime_median": "Descriptions of the metric",
    "SyncTime_75th_percentile": "Descriptions of the metric",
    "SyncTime_90th_percentile": "Descriptions of the metric",
    "SyncTime_95th_percentile": "Descriptions of the metric",
    "SyncTime_98th_percentile": "Descriptions of the metric",
    "SyncTime_99th_percentile": "Descriptions of the metric",
    "SyncTime_99.9th_percentile": "Descriptions of the metric",
    "slowAppendCount": "Descriptions of the metric",
    "rollRequest": "Descriptions of the metric",
    "writtenBytes": "Descriptions of the metric",
    "appendCount": "Descriptions of the metric",
    "lowReplicaRollRequest": "Descriptions of the metric",
    "AppendTime_num_ops": "Descriptions of the metric",
    "AppendTime_min": "Descriptions of the metric",
    "AppendTime_max": "Descriptions of the metric",
    "AppendTime_mean": "Descriptions of the metric",
    "AppendTime_25th_percentile": "Descriptions of the metric",
    "AppendTime_median": "Descriptions of the metric",
    "AppendTime_75th_percentile": "Descriptions of the metric",
    "AppendTime_90th_percentile": "Descriptions of the metric",
    "AppendTime_95th_percentile": "Descriptions of the metric",
    "AppendTime_98th_percentile": "Descriptions of the metric",
    "AppendTime_99th_percentile": "Descriptions of the metric",
    "AppendTime_99.9th_percentile": "Descriptions of the metric"
}