{
    "HlogSplitTime_num_ops": "Time it takes to finish WAL.splitLog()",
    "HlogSplitTime_min": "Minimize time it takes to finish WAL.splitLog()",
    "HlogSplitTime_max": "Maximize time it takes to finish WAL.splitLog()",
    "HlogSplitTime_mean": "Mean time it takes to finish WAL.splitLog()",
    "HlogSplitTime_25th_percentile": "",
    "HlogSplitTime_median": "Median time it takes to finish WAL.splitLog()",
    "HlogSplitTime_75th_percentile": "",
    "HlogSplitTime_90th_percentile": "",
    "HlogSplitTime_95th_percentile": "",
    "HlogSplitTime_98th_percentile": "",
    "HlogSplitTime_99th_percentile": "",
    "HlogSplitTime_99.9th_percentile": "",
    "MetaHlogSplitTime_num_ops": "Time it takes to finish splitMetaLog()",
    "MetaHlogSplitTime_min": "Minimize time it takes to finish splitMetaLog()",
    "MetaHlogSplitTime_max": "Maximize time it takes to finish splitMetaLog()",
    "MetaHlogSplitTime_mean": "Mean time it takes to finish splitMetaLog()",
    "MetaHlogSplitTime_25th_percentile": "",
    "MetaHlogSplitTime_median": "Median time it takes to finish splitMetaLog()",
    "MetaHlogSplitTime_75th_percentile": "",
    "MetaHlogSplitTime_90th_percentile": "",
    "MetaHlogSplitTime_95th_percentile": "",
    "MetaHlogSplitTime_98th_percentile": "",
    "MetaHlogSplitTime_99th_percentile": "",
    "MetaHlogSplitTime_99.9th_percentile": "",
    "HlogSplitSize_num_ops": "Size of WAL files being split",
    "HlogSplitSize_min": "Minimize size of WAL files being split",
    "HlogSplitSize_max": "Maximize size of WAL files being split",
    "HlogSplitSize_mean": "Mean size of WAL files being split",
    "HlogSplitSize_25th_percentile": "",
    "HlogSplitSize_median": "Median size of WAL files being split",
    "HlogSplitSize_75th_percentile": "",
    "HlogSplitSize_90th_percentile": "",
    "HlogSplitSize_95th_percentile": "",
    "HlogSplitSize_98th_percentile": "",
    "HlogSplitSize_99th_percentile": "",
    "HlogSplitSize_99.9th_percentile": "",
    "MetaHlogSplitSize_num_ops": "Size of hbase:meta WAL files being split",
    "MetaHlogSplitSize_min": "Minimize size of hbase:meta WAL files being split",
    "MetaHlogSplitSize_max": "Maximize size of hbase:meta WAL files being split",
    "MetaHlogSplitSize_mean": "Mean size of hbase:meta WAL files being split",
    "MetaHlogSplitSize_25th_percentile": "",
    "MetaHlogSplitSize_median": "Median size of hbase:meta WAL files being split",
    "MetaHlogSplitSize_75th_percentile": "",
    "MetaHlogSplitSize_90th_percentile": "",
    "MetaHlogSplitSize_95th_percentile": "",
    "MetaHlogSplitSize_98th_percentile": "",
    "MetaHlogSplitSize_99th_percentile": "",
    "MetaHlogSplitSize_99.9th_percentile": ""
}