{
    "buffers.direct.capacity" : "Description of the metric",
    "buffers.direct.count" : "Description of the metric",
    "buffers.direct.used" : "Description of the metric",
    "buffers.mapped.capacity" : "Description of the metric",
    "buffers.mapped.count" : "Description of the metric",
    "buffers.mapped.used" : "Description of the metric",
    "classLoading.loaded" : "Description of the metric",
    "classLoading.unloaded" : "Description of the metric",
    "exec_async_pool_size" : "Description of the metric",
    "exec_async_queue_size" : "Description of the metric",
    "gc.PS-MarkSweep.count" : "Description of the metric",
    "gc.PS-MarkSweep.time" : "Description of the metric",
    "gc.PS-Scavenge.count" : "Description of the metric",
    "gc.PS-Scavenge.time" : "Description of the metric",
    "init_total_count_dbs" : "Description of the metric",
    "init_total_count_partitions" : "Description of the metric",
    "init_total_count_tables" : "Description of the metric",
    "memory.heap.committed" : "Description of the metric",
    "memory.heap.init" : "Description of the metric",
    "memory.heap.max" : "Description of the metric",
    "memory.heap.usage" : "Description of the metric",
    "memory.heap.used" : "Description of the metric",
    "memory.non-heap.committed" : "Description of the metric",
    "memory.non-heap.init" : "Description of the metric",
    "memory.non-heap.max" : "Description of the metric",
    "memory.non-heap.usage" : "Description of the metric",
    "memory.non-heap.used" : "Description of the metric",
    "memory.pools.Code-Cache.usage" : "Description of the metric",
    "memory.pools.Compressed-Class-Space.usage" : "Description of the metric",
    "memory.pools.Metaspace.usage" : "Description of the metric",
    "memory.pools.PS-Eden-Space.usage" : "Description of the metric",
    "memory.pools.PS-Old-Gen.usage" : "Description of the metric",
    "memory.pools.PS-Survivor-Space.usage" : "Description of the metric",
    "memory.total.committed" : "Description of the metric",
    "memory.total.init" : "Description of the metric",
    "memory.total.max" : "Description of the metric",
    "memory.total.used" : "Description of the metric",
    "threads.blocked.count" : "Description of the metric",
    "threads.count" : "Description of the metric",
    "threads.daemon.count" : "Description of the metric",
    "threads.deadlock.count" : "Description of the metric",
    "threads.new.count" : "Description of the metric",
    "threads.runnable.count" : "Description of the metric",
    "threads.terminated.count" : "Description of the metric",
    "threads.timed_waiting.count" : "Description of the metric",
    "threads.waiting.count" : "Description of the metric",
    "active_calls_api_Driver.execute" : "Description of the metric",
    "active_calls_api_Driver.run" : "Description of the metric",
    "active_calls_api_FailureHook.org.apache.hadoop.hive.ql.hooks.ATSHook" : "Description of the metric",
    "active_calls_api_FileMoves" : "Description of the metric",
    "active_calls_api_PostHook.org.apache.atlas.hive.hook.HiveHook" : "Description of the metric",
    "active_calls_api_PostHook.org.apache.hadoop.hive.ql.hooks.ATSHook" : "Description of the metric",
    "active_calls_api_PreHook.org.apache.hadoop.hive.ql.hooks.ATSHook" : "Description of the metric",
    "active_calls_api_PreHook.org.apache.hadoop.hive.ql.security.authorization.plugin.DisallowTransformHook" : "Description of the metric",
    "active_calls_api_RemoveTempOrDuplicateFiles" : "Description of the metric",
    "active_calls_api_RenameOrMoveFiles" : "Description of the metric",
    "active_calls_api_TezBuildDag" : "Description of the metric",
    "active_calls_api_TezCompiler" : "Description of the metric",
    "active_calls_api_TezRunDag" : "Description of the metric",
    "active_calls_api_TezSubmitDag" : "Description of the metric",
    "active_calls_api_TezSubmitToRunningDag" : "Description of the metric",
    "active_calls_api_abort_txn" : "Description of the metric",
    "active_calls_api_acquireReadWriteLocks" : "Description of the metric",
    "active_calls_api_add_dynamic_partitions" : "Description of the metric",
    "active_calls_api_add_partition" : "Description of the metric",
    "active_calls_api_add_partition_with_environment_context" : "Description of the metric",
    "active_calls_api_alter_partitions" : "Description of the metric",
    "active_calls_api_alter_partitions_with_environment_context" : "Description of the metric",
    "active_calls_api_alter_table" : "Description of the metric",
    "active_calls_api_alter_table_with_environment_context" : "Description of the metric",
    "active_calls_api_check_lock" : "Description of the metric",
    "active_calls_api_commit_txn" : "Description of the metric",
    "active_calls_api_compile" : "Description of the metric",
    "active_calls_api_create_database" : "Description of the metric",
    "active_calls_api_create_function" : "Description of the metric",
    "active_calls_api_create_table" : "Description of the metric",
    "active_calls_api_create_table_with_environment_context" : "Description of the metric",
    "active_calls_api_doAuthorization" : "Description of the metric",
    "active_calls_api_drop_database" : "Description of the metric",
    "active_calls_api_drop_table" : "Description of the metric",
    "active_calls_api_drop_table_with_environment_context" : "Description of the metric",
    "active_calls_api_flushCache" : "Description of the metric",
    "active_calls_api_getMetaConf" : "Description of the metric",
    "active_calls_api_get_aggr_stats_for" : "Description of the metric",
    "active_calls_api_get_all_databases" : "Description of the metric",
    "active_calls_api_get_all_functions" : "Description of the metric",
    "active_calls_api_get_all_tables" : "Description of the metric",
    "active_calls_api_get_database" : "Description of the metric",
    "active_calls_api_get_functions" : "Description of the metric",
    "active_calls_api_get_open_txns" : "Description of the metric",
    "active_calls_api_get_partition_names" : "Description of the metric",
    "active_calls_api_get_partition_with_auth" : "Description of the metric",
    "active_calls_api_get_partitions" : "Description of the metric",
    "active_calls_api_get_partitions_by_expr" : "Description of the metric",
    "active_calls_api_get_partitions_ps_with_auth" : "Description of the metric",
    "active_calls_api_get_partitions_with_auth" : "Description of the metric",
    "active_calls_api_get_table" : "Description of the metric",
    "active_calls_api_get_tables" : "Description of the metric",
    "active_calls_api_heartbeat" : "Description of the metric",
    "active_calls_api_hs2_operation_INITIALIZED" : "Description of the metric",
    "active_calls_api_hs2_operation_PENDING" : "Description of the metric",
    "active_calls_api_hs2_operation_RUNNING" : "Description of the metric",
    "active_calls_api_hs2_sql_operation_PENDING" : "Description of the metric",
    "active_calls_api_hs2_sql_operation_RUNNING" : "Description of the metric",
    "active_calls_api_init" : "Description of the metric",
    "active_calls_api_lock" : "Description of the metric",
    "active_calls_api_open_txns" : "Description of the metric",
    "active_calls_api_optimizer" : "Description of the metric",
    "active_calls_api_parse" : "Description of the metric",
    "active_calls_api_partition-retrieving" : "Description of the metric",
    "active_calls_api_releaseLocks" : "Description of the metric",
    "active_calls_api_runTasks" : "Description of the metric",
    "active_calls_api_semanticAnalyze" : "Description of the metric",
    "active_calls_api_serializePlan" : "Description of the metric",
    "active_calls_api_show_locks" : "Description of the metric",
    "active_calls_api_shutdown" : "Description of the metric",
    "active_calls_api_truncate_table" : "Description of the metric",
    "active_calls_api_unlock" : "Description of the metric",
    "create_total_count_dbs" : "Description of the metric",
    "create_total_count_partitions" : "Description of the metric",
    "create_total_count_tables" : "Description of the metric",
    "cumulative_connection_count" : "Description of the metric",
    "delete_total_count_dbs" : "Description of the metric",
    "delete_total_count_partitions" : "Description of the metric",
    "delete_total_count_tables" : "Description of the metric",
    "hs2_completed_operation_CLOSED" : "Description of the metric",
    "hs2_completed_operation_ERROR" : "Description of the metric",
    "hs2_completed_operation_FINISHED" : "Description of the metric",
    "hs2_completed_sql_operation_CLOSED" : "Description of the metric",
    "hs2_completed_sql_operation_ERROR" : "Description of the metric",
    "hs2_completed_sql_operation_FINISHED" : "Description of the metric",
    "hs2_sql_operation_active_user" : "Description of the metric",
    "jvm.pause.extraSleepTime" : "Description of the metric",
    "jvm.pause.info-threshold" : "Description of the metric",
    "metastore_hive_locks" : "Description of the metric",
    "open_connections" : "Description of the metric",
    "open_operations" : "Description of the metric",
    "api_Driver.execute_count" : "Description of the metric",
    "api_Driver.execute_mean_rate" : "Description of the metric",
    "api_Driver.execute_1min_rate" : "Description of the metric",
    "api_Driver.execute_5min_rate" : "Description of the metric",
    "api_Driver.execute_15min_rate" : "Description of the metric",
    "api_Driver.execute_mean" : "Description of the metric",
    "api_Driver.execute_min" : "Description of the metric",
    "api_Driver.execute_max" : "Description of the metric",
    "api_Driver.execute_median" : "Description of the metric",
    "api_Driver.execute_stddev" : "Description of the metric",
    "api_Driver.execute_75thpercentile" : "Description of the metric",
    "api_Driver.execute_95thpercentile" : "Description of the metric",
    "api_Driver.execute_98thpercentile" : "Description of the metric",
    "api_Driver.execute_99thpercentile" : "Description of the metric",
    "api_Driver.execute_999thpercentile" : "Description of the metric",
    "api_Driver.run_count" : "Description of the metric",
    "api_Driver.run_mean_rate" : "Description of the metric",
    "api_Driver.run_1min_rate" : "Description of the metric",
    "api_Driver.run_5min_rate" : "Description of the metric",
    "api_Driver.run_15min_rate" : "Description of the metric",
    "api_Driver.run_mean" : "Description of the metric",
    "api_Driver.run_min" : "Description of the metric",
    "api_Driver.run_max" : "Description of the metric",
    "api_Driver.run_median" : "Description of the metric",
    "api_Driver.run_stddev" : "Description of the metric",
    "api_Driver.run_75thpercentile" : "Description of the metric",
    "api_Driver.run_95thpercentile" : "Description of the metric",
    "api_Driver.run_98thpercentile" : "Description of the metric",
    "api_Driver.run_99thpercentile" : "Description of the metric",
    "api_Driver.run_999thpercentile" : "Description of the metric",
    "api_FailureHook.org.apache.hadoop.hive.ql.hooks.ATSHook_count" : "Description of the metric",
    "api_FailureHook.org.apache.hadoop.hive.ql.hooks.ATSHook_mean_rate" : "Description of the metric",
    "api_FailureHook.org.apache.hadoop.hive.ql.hooks.ATSHook_1min_rate" : "Description of the metric",
    "api_FailureHook.org.apache.hadoop.hive.ql.hooks.ATSHook_5min_rate" : "Description of the metric",
    "api_FailureHook.org.apache.hadoop.hive.ql.hooks.ATSHook_15min_rate" : "Description of the metric",
    "api_FailureHook.org.apache.hadoop.hive.ql.hooks.ATSHook_mean" : "Description of the metric",
    "api_FailureHook.org.apache.hadoop.hive.ql.hooks.ATSHook_min" : "Description of the metric",
    "api_FailureHook.org.apache.hadoop.hive.ql.hooks.ATSHook_max" : "Description of the metric",
    "api_FailureHook.org.apache.hadoop.hive.ql.hooks.ATSHook_median" : "Description of the metric",
    "api_FailureHook.org.apache.hadoop.hive.ql.hooks.ATSHook_stddev" : "Description of the metric",
    "api_FailureHook.org.apache.hadoop.hive.ql.hooks.ATSHook_75thpercentile" : "Description of the metric",
    "api_FailureHook.org.apache.hadoop.hive.ql.hooks.ATSHook_95thpercentile" : "Description of the metric",
    "api_FailureHook.org.apache.hadoop.hive.ql.hooks.ATSHook_98thpercentile" : "Description of the metric",
    "api_FailureHook.org.apache.hadoop.hive.ql.hooks.ATSHook_99thpercentile" : "Description of the metric",
    "api_FailureHook.org.apache.hadoop.hive.ql.hooks.ATSHook_999thpercentile" : "Description of the metric",
    "api_FileMoves_count" : "Description of the metric",
    "api_FileMoves_mean_rate" : "Description of the metric",
    "api_FileMoves_1min_rate" : "Description of the metric",
    "api_FileMoves_5min_rate" : "Description of the metric",
    "api_FileMoves_15min_rate" : "Description of the metric",
    "api_FileMoves_mean" : "Description of the metric",
    "api_FileMoves_min" : "Description of the metric",
    "api_FileMoves_max" : "Description of the metric",
    "api_FileMoves_median" : "Description of the metric",
    "api_FileMoves_stddev" : "Description of the metric",
    "api_FileMoves_75thpercentile" : "Description of the metric",
    "api_FileMoves_95thpercentile" : "Description of the metric",
    "api_FileMoves_98thpercentile" : "Description of the metric",
    "api_FileMoves_99thpercentile" : "Description of the metric",
    "api_FileMoves_999thpercentile" : "Description of the metric",
    "api_PostHook.org.apache.atlas.hive.hook.HiveHook_count" : "Description of the metric",
    "api_PostHook.org.apache.atlas.hive.hook.HiveHook_mean_rate" : "Description of the metric",
    "api_PostHook.org.apache.atlas.hive.hook.HiveHook_1min_rate" : "Description of the metric",
    "api_PostHook.org.apache.atlas.hive.hook.HiveHook_5min_rate" : "Description of the metric",
    "api_PostHook.org.apache.atlas.hive.hook.HiveHook_15min_rate" : "Description of the metric",
    "api_PostHook.org.apache.atlas.hive.hook.HiveHook_mean" : "Description of the metric",
    "api_PostHook.org.apache.atlas.hive.hook.HiveHook_min" : "Description of the metric",
    "api_PostHook.org.apache.atlas.hive.hook.HiveHook_max" : "Description of the metric",
    "api_PostHook.org.apache.atlas.hive.hook.HiveHook_median" : "Description of the metric",
    "api_PostHook.org.apache.atlas.hive.hook.HiveHook_stddev" : "Description of the metric",
    "api_PostHook.org.apache.atlas.hive.hook.HiveHook_75thpercentile" : "Description of the metric",
    "api_PostHook.org.apache.atlas.hive.hook.HiveHook_95thpercentile" : "Description of the metric",
    "api_PostHook.org.apache.atlas.hive.hook.HiveHook_98thpercentile" : "Description of the metric",
    "api_PostHook.org.apache.atlas.hive.hook.HiveHook_99thpercentile" : "Description of the metric",
    "api_PostHook.org.apache.atlas.hive.hook.HiveHook_999thpercentile" : "Description of the metric",
    "api_PostHook.org.apache.hadoop.hive.ql.hooks.ATSHook_count" : "Description of the metric",
    "api_PostHook.org.apache.hadoop.hive.ql.hooks.ATSHook_mean_rate" : "Description of the metric",
    "api_PostHook.org.apache.hadoop.hive.ql.hooks.ATSHook_1min_rate" : "Description of the metric",
    "api_PostHook.org.apache.hadoop.hive.ql.hooks.ATSHook_5min_rate" : "Description of the metric",
    "api_PostHook.org.apache.hadoop.hive.ql.hooks.ATSHook_15min_rate" : "Description of the metric",
    "api_PostHook.org.apache.hadoop.hive.ql.hooks.ATSHook_mean" : "Description of the metric",
    "api_PostHook.org.apache.hadoop.hive.ql.hooks.ATSHook_min" : "Description of the metric",
    "api_PostHook.org.apache.hadoop.hive.ql.hooks.ATSHook_max" : "Description of the metric",
    "api_PostHook.org.apache.hadoop.hive.ql.hooks.ATSHook_median" : "Description of the metric",
    "api_PostHook.org.apache.hadoop.hive.ql.hooks.ATSHook_stddev" : "Description of the metric",
    "api_PostHook.org.apache.hadoop.hive.ql.hooks.ATSHook_75thpercentile" : "Description of the metric",
    "api_PostHook.org.apache.hadoop.hive.ql.hooks.ATSHook_95thpercentile" : "Description of the metric",
    "api_PostHook.org.apache.hadoop.hive.ql.hooks.ATSHook_98thpercentile" : "Description of the metric",
    "api_PostHook.org.apache.hadoop.hive.ql.hooks.ATSHook_99thpercentile" : "Description of the metric",
    "api_PostHook.org.apache.hadoop.hive.ql.hooks.ATSHook_999thpercentile" : "Description of the metric",
    "api_PreHook.org.apache.hadoop.hive.ql.hooks.ATSHook_count" : "Description of the metric",
    "api_PreHook.org.apache.hadoop.hive.ql.hooks.ATSHook_mean_rate" : "Description of the metric",
    "api_PreHook.org.apache.hadoop.hive.ql.hooks.ATSHook_1min_rate" : "Description of the metric",
    "api_PreHook.org.apache.hadoop.hive.ql.hooks.ATSHook_5min_rate" : "Description of the metric",
    "api_PreHook.org.apache.hadoop.hive.ql.hooks.ATSHook_15min_rate" : "Description of the metric",
    "api_PreHook.org.apache.hadoop.hive.ql.hooks.ATSHook_mean" : "Description of the metric",
    "api_PreHook.org.apache.hadoop.hive.ql.hooks.ATSHook_min" : "Description of the metric",
    "api_PreHook.org.apache.hadoop.hive.ql.hooks.ATSHook_max" : "Description of the metric",
    "api_PreHook.org.apache.hadoop.hive.ql.hooks.ATSHook_median" : "Description of the metric",
    "api_PreHook.org.apache.hadoop.hive.ql.hooks.ATSHook_stddev" : "Description of the metric",
    "api_PreHook.org.apache.hadoop.hive.ql.hooks.ATSHook_75thpercentile" : "Description of the metric",
    "api_PreHook.org.apache.hadoop.hive.ql.hooks.ATSHook_95thpercentile" : "Description of the metric",
    "api_PreHook.org.apache.hadoop.hive.ql.hooks.ATSHook_98thpercentile" : "Description of the metric",
    "api_PreHook.org.apache.hadoop.hive.ql.hooks.ATSHook_99thpercentile" : "Description of the metric",
    "api_PreHook.org.apache.hadoop.hive.ql.hooks.ATSHook_999thpercentile" : "Description of the metric",
    "api_PreHook.org.apache.hadoop.hive.ql.security.authorization.plugin.DisallowTransformHook_count" : "Description of the metric",
    "api_PreHook.org.apache.hadoop.hive.ql.security.authorization.plugin.DisallowTransformHook_mean_rate" : "Description of the metric",
    "api_PreHook.org.apache.hadoop.hive.ql.security.authorization.plugin.DisallowTransformHook_1min_rate" : "Description of the metric",
    "api_PreHook.org.apache.hadoop.hive.ql.security.authorization.plugin.DisallowTransformHook_5min_rate" : "Description of the metric",
    "api_PreHook.org.apache.hadoop.hive.ql.security.authorization.plugin.DisallowTransformHook_15min_rate" : "Description of the metric",
    "api_PreHook.org.apache.hadoop.hive.ql.security.authorization.plugin.DisallowTransformHook_mean" : "Description of the metric",
    "api_PreHook.org.apache.hadoop.hive.ql.security.authorization.plugin.DisallowTransformHook_min" : "Description of the metric",
    "api_PreHook.org.apache.hadoop.hive.ql.security.authorization.plugin.DisallowTransformHook_max" : "Description of the metric",
    "api_PreHook.org.apache.hadoop.hive.ql.security.authorization.plugin.DisallowTransformHook_median" : "Description of the metric",
    "api_PreHook.org.apache.hadoop.hive.ql.security.authorization.plugin.DisallowTransformHook_stddev" : "Description of the metric",
    "api_PreHook.org.apache.hadoop.hive.ql.security.authorization.plugin.DisallowTransformHook_75thpercentile" : "Description of the metric",
    "api_PreHook.org.apache.hadoop.hive.ql.security.authorization.plugin.DisallowTransformHook_95thpercentile" : "Description of the metric",
    "api_PreHook.org.apache.hadoop.hive.ql.security.authorization.plugin.DisallowTransformHook_98thpercentile" : "Description of the metric",
    "api_PreHook.org.apache.hadoop.hive.ql.security.authorization.plugin.DisallowTransformHook_99thpercentile" : "Description of the metric",
    "api_PreHook.org.apache.hadoop.hive.ql.security.authorization.plugin.DisallowTransformHook_999thpercentile" : "Description of the metric",
    "api_RemoveTempOrDuplicateFiles_count" : "Description of the metric",
    "api_RemoveTempOrDuplicateFiles_mean_rate" : "Description of the metric",
    "api_RemoveTempOrDuplicateFiles_1min_rate" : "Description of the metric",
    "api_RemoveTempOrDuplicateFiles_5min_rate" : "Description of the metric",
    "api_RemoveTempOrDuplicateFiles_15min_rate" : "Description of the metric",
    "api_RemoveTempOrDuplicateFiles_mean" : "Description of the metric",
    "api_RemoveTempOrDuplicateFiles_min" : "Description of the metric",
    "api_RemoveTempOrDuplicateFiles_max" : "Description of the metric",
    "api_RemoveTempOrDuplicateFiles_median" : "Description of the metric",
    "api_RemoveTempOrDuplicateFiles_stddev" : "Description of the metric",
    "api_RemoveTempOrDuplicateFiles_75thpercentile" : "Description of the metric",
    "api_RemoveTempOrDuplicateFiles_95thpercentile" : "Description of the metric",
    "api_RemoveTempOrDuplicateFiles_98thpercentile" : "Description of the metric",
    "api_RemoveTempOrDuplicateFiles_99thpercentile" : "Description of the metric",
    "api_RemoveTempOrDuplicateFiles_999thpercentile" : "Description of the metric",
    "api_RenameOrMoveFiles_count" : "Description of the metric",
    "api_RenameOrMoveFiles_mean_rate" : "Description of the metric",
    "api_RenameOrMoveFiles_1min_rate" : "Description of the metric",
    "api_RenameOrMoveFiles_5min_rate" : "Description of the metric",
    "api_RenameOrMoveFiles_15min_rate" : "Description of the metric",
    "api_RenameOrMoveFiles_mean" : "Description of the metric",
    "api_RenameOrMoveFiles_min" : "Description of the metric",
    "api_RenameOrMoveFiles_max" : "Description of the metric",
    "api_RenameOrMoveFiles_median" : "Description of the metric",
    "api_RenameOrMoveFiles_stddev" : "Description of the metric",
    "api_RenameOrMoveFiles_75thpercentile" : "Description of the metric",
    "api_RenameOrMoveFiles_95thpercentile" : "Description of the metric",
    "api_RenameOrMoveFiles_98thpercentile" : "Description of the metric",
    "api_RenameOrMoveFiles_99thpercentile" : "Description of the metric",
    "api_RenameOrMoveFiles_999thpercentile" : "Description of the metric",
    "api_TezBuildDag_count" : "Description of the metric",
    "api_TezBuildDag_mean_rate" : "Description of the metric",
    "api_TezBuildDag_1min_rate" : "Description of the metric",
    "api_TezBuildDag_5min_rate" : "Description of the metric",
    "api_TezBuildDag_15min_rate" : "Description of the metric",
    "api_TezBuildDag_mean" : "Description of the metric",
    "api_TezBuildDag_min" : "Description of the metric",
    "api_TezBuildDag_max" : "Description of the metric",
    "api_TezBuildDag_median" : "Description of the metric",
    "api_TezBuildDag_stddev" : "Description of the metric",
    "api_TezBuildDag_75thpercentile" : "Description of the metric",
    "api_TezBuildDag_95thpercentile" : "Description of the metric",
    "api_TezBuildDag_98thpercentile" : "Description of the metric",
    "api_TezBuildDag_99thpercentile" : "Description of the metric",
    "api_TezBuildDag_999thpercentile" : "Description of the metric",
    "api_TezCompiler_count" : "Description of the metric",
    "api_TezCompiler_mean_rate" : "Description of the metric",
    "api_TezCompiler_1min_rate" : "Description of the metric",
    "api_TezCompiler_5min_rate" : "Description of the metric",
    "api_TezCompiler_15min_rate" : "Description of the metric",
    "api_TezCompiler_mean" : "Description of the metric",
    "api_TezCompiler_min" : "Description of the metric",
    "api_TezCompiler_max" : "Description of the metric",
    "api_TezCompiler_median" : "Description of the metric",
    "api_TezCompiler_stddev" : "Description of the metric",
    "api_TezCompiler_75thpercentile" : "Description of the metric",
    "api_TezCompiler_95thpercentile" : "Description of the metric",
    "api_TezCompiler_98thpercentile" : "Description of the metric",
    "api_TezCompiler_99thpercentile" : "Description of the metric",
    "api_TezCompiler_999thpercentile" : "Description of the metric",
    "api_TezRunDag_count" : "Description of the metric",
    "api_TezRunDag_mean_rate" : "Description of the metric",
    "api_TezRunDag_1min_rate" : "Description of the metric",
    "api_TezRunDag_5min_rate" : "Description of the metric",
    "api_TezRunDag_15min_rate" : "Description of the metric",
    "api_TezRunDag_mean" : "Description of the metric",
    "api_TezRunDag_min" : "Description of the metric",
    "api_TezRunDag_max" : "Description of the metric",
    "api_TezRunDag_median" : "Description of the metric",
    "api_TezRunDag_stddev" : "Description of the metric",
    "api_TezRunDag_75thpercentile" : "Description of the metric",
    "api_TezRunDag_95thpercentile" : "Description of the metric",
    "api_TezRunDag_98thpercentile" : "Description of the metric",
    "api_TezRunDag_99thpercentile" : "Description of the metric",
    "api_TezRunDag_999thpercentile" : "Description of the metric",
    "api_TezSubmitDag_count" : "Description of the metric",
    "api_TezSubmitDag_mean_rate" : "Description of the metric",
    "api_TezSubmitDag_1min_rate" : "Description of the metric",
    "api_TezSubmitDag_5min_rate" : "Description of the metric",
    "api_TezSubmitDag_15min_rate" : "Description of the metric",
    "api_TezSubmitDag_mean" : "Description of the metric",
    "api_TezSubmitDag_min" : "Description of the metric",
    "api_TezSubmitDag_max" : "Description of the metric",
    "api_TezSubmitDag_median" : "Description of the metric",
    "api_TezSubmitDag_stddev" : "Description of the metric",
    "api_TezSubmitDag_75thpercentile" : "Description of the metric",
    "api_TezSubmitDag_95thpercentile" : "Description of the metric",
    "api_TezSubmitDag_98thpercentile" : "Description of the metric",
    "api_TezSubmitDag_99thpercentile" : "Description of the metric",
    "api_TezSubmitDag_999thpercentile" : "Description of the metric",
    "api_TezSubmitToRunningDag_count" : "Description of the metric",
    "api_TezSubmitToRunningDag_mean_rate" : "Description of the metric",
    "api_TezSubmitToRunningDag_1min_rate" : "Description of the metric",
    "api_TezSubmitToRunningDag_5min_rate" : "Description of the metric",
    "api_TezSubmitToRunningDag_15min_rate" : "Description of the metric",
    "api_TezSubmitToRunningDag_mean" : "Description of the metric",
    "api_TezSubmitToRunningDag_min" : "Description of the metric",
    "api_TezSubmitToRunningDag_max" : "Description of the metric",
    "api_TezSubmitToRunningDag_median" : "Description of the metric",
    "api_TezSubmitToRunningDag_stddev" : "Description of the metric",
    "api_TezSubmitToRunningDag_75thpercentile" : "Description of the metric",
    "api_TezSubmitToRunningDag_95thpercentile" : "Description of the metric",
    "api_TezSubmitToRunningDag_98thpercentile" : "Description of the metric",
    "api_TezSubmitToRunningDag_99thpercentile" : "Description of the metric",
    "api_TezSubmitToRunningDag_999thpercentile" : "Description of the metric",
    "api_abort_txn_count" : "Description of the metric",
    "api_abort_txn_mean_rate" : "Description of the metric",
    "api_abort_txn_1min_rate" : "Description of the metric",
    "api_abort_txn_5min_rate" : "Description of the metric",
    "api_abort_txn_15min_rate" : "Description of the metric",
    "api_abort_txn_mean" : "Description of the metric",
    "api_abort_txn_min" : "Description of the metric",
    "api_abort_txn_max" : "Description of the metric",
    "api_abort_txn_median" : "Description of the metric",
    "api_abort_txn_stddev" : "Description of the metric",
    "api_abort_txn_75thpercentile" : "Description of the metric",
    "api_abort_txn_95thpercentile" : "Description of the metric",
    "api_abort_txn_98thpercentile" : "Description of the metric",
    "api_abort_txn_99thpercentile" : "Description of the metric",
    "api_abort_txn_999thpercentile" : "Description of the metric",
    "api_acquireReadWriteLocks_count" : "Description of the metric",
    "api_acquireReadWriteLocks_mean_rate" : "Description of the metric",
    "api_acquireReadWriteLocks_1min_rate" : "Description of the metric",
    "api_acquireReadWriteLocks_5min_rate" : "Description of the metric",
    "api_acquireReadWriteLocks_15min_rate" : "Description of the metric",
    "api_acquireReadWriteLocks_mean" : "Description of the metric",
    "api_acquireReadWriteLocks_min" : "Description of the metric",
    "api_acquireReadWriteLocks_max" : "Description of the metric",
    "api_acquireReadWriteLocks_median" : "Description of the metric",
    "api_acquireReadWriteLocks_stddev" : "Description of the metric",
    "api_acquireReadWriteLocks_75thpercentile" : "Description of the metric",
    "api_acquireReadWriteLocks_95thpercentile" : "Description of the metric",
    "api_acquireReadWriteLocks_98thpercentile" : "Description of the metric",
    "api_acquireReadWriteLocks_99thpercentile" : "Description of the metric",
    "api_acquireReadWriteLocks_999thpercentile" : "Description of the metric",
    "api_add_dynamic_partitions_count" : "Description of the metric",
    "api_add_dynamic_partitions_mean_rate" : "Description of the metric",
    "api_add_dynamic_partitions_1min_rate" : "Description of the metric",
    "api_add_dynamic_partitions_5min_rate" : "Description of the metric",
    "api_add_dynamic_partitions_15min_rate" : "Description of the metric",
    "api_add_dynamic_partitions_mean" : "Description of the metric",
    "api_add_dynamic_partitions_min" : "Description of the metric",
    "api_add_dynamic_partitions_max" : "Description of the metric",
    "api_add_dynamic_partitions_median" : "Description of the metric",
    "api_add_dynamic_partitions_stddev" : "Description of the metric",
    "api_add_dynamic_partitions_75thpercentile" : "Description of the metric",
    "api_add_dynamic_partitions_95thpercentile" : "Description of the metric",
    "api_add_dynamic_partitions_98thpercentile" : "Description of the metric",
    "api_add_dynamic_partitions_99thpercentile" : "Description of the metric",
    "api_add_dynamic_partitions_999thpercentile" : "Description of the metric",
    "api_add_partition_count" : "Description of the metric",
    "api_add_partition_mean_rate" : "Description of the metric",
    "api_add_partition_1min_rate" : "Description of the metric",
    "api_add_partition_5min_rate" : "Description of the metric",
    "api_add_partition_15min_rate" : "Description of the metric",
    "api_add_partition_mean" : "Description of the metric",
    "api_add_partition_min" : "Description of the metric",
    "api_add_partition_max" : "Description of the metric",
    "api_add_partition_median" : "Description of the metric",
    "api_add_partition_stddev" : "Description of the metric",
    "api_add_partition_75thpercentile" : "Description of the metric",
    "api_add_partition_95thpercentile" : "Description of the metric",
    "api_add_partition_98thpercentile" : "Description of the metric",
    "api_add_partition_99thpercentile" : "Description of the metric",
    "api_add_partition_999thpercentile" : "Description of the metric",
    "api_add_partition_with_environment_context_count" : "Description of the metric",
    "api_add_partition_with_environment_context_mean_rate" : "Description of the metric",
    "api_add_partition_with_environment_context_1min_rate" : "Description of the metric",
    "api_add_partition_with_environment_context_5min_rate" : "Description of the metric",
    "api_add_partition_with_environment_context_15min_rate" : "Description of the metric",
    "api_add_partition_with_environment_context_mean" : "Description of the metric",
    "api_add_partition_with_environment_context_min" : "Description of the metric",
    "api_add_partition_with_environment_context_max" : "Description of the metric",
    "api_add_partition_with_environment_context_median" : "Description of the metric",
    "api_add_partition_with_environment_context_stddev" : "Description of the metric",
    "api_add_partition_with_environment_context_75thpercentile" : "Description of the metric",
    "api_add_partition_with_environment_context_95thpercentile" : "Description of the metric",
    "api_add_partition_with_environment_context_98thpercentile" : "Description of the metric",
    "api_add_partition_with_environment_context_99thpercentile" : "Description of the metric",
    "api_add_partition_with_environment_context_999thpercentile" : "Description of the metric",
    "api_alter_partitions_count" : "Description of the metric",
    "api_alter_partitions_mean_rate" : "Description of the metric",
    "api_alter_partitions_1min_rate" : "Description of the metric",
    "api_alter_partitions_5min_rate" : "Description of the metric",
    "api_alter_partitions_15min_rate" : "Description of the metric",
    "api_alter_partitions_mean" : "Description of the metric",
    "api_alter_partitions_min" : "Description of the metric",
    "api_alter_partitions_max" : "Description of the metric",
    "api_alter_partitions_median" : "Description of the metric",
    "api_alter_partitions_stddev" : "Description of the metric",
    "api_alter_partitions_75thpercentile" : "Description of the metric",
    "api_alter_partitions_95thpercentile" : "Description of the metric",
    "api_alter_partitions_98thpercentile" : "Description of the metric",
    "api_alter_partitions_99thpercentile" : "Description of the metric",
    "api_alter_partitions_999thpercentile" : "Description of the metric",
    "api_alter_partitions_with_environment_context_count" : "Description of the metric",
    "api_alter_partitions_with_environment_context_mean_rate" : "Description of the metric",
    "api_alter_partitions_with_environment_context_1min_rate" : "Description of the metric",
    "api_alter_partitions_with_environment_context_5min_rate" : "Description of the metric",
    "api_alter_partitions_with_environment_context_15min_rate" : "Description of the metric",
    "api_alter_partitions_with_environment_context_mean" : "Description of the metric",
    "api_alter_partitions_with_environment_context_min" : "Description of the metric",
    "api_alter_partitions_with_environment_context_max" : "Description of the metric",
    "api_alter_partitions_with_environment_context_median" : "Description of the metric",
    "api_alter_partitions_with_environment_context_stddev" : "Description of the metric",
    "api_alter_partitions_with_environment_context_75thpercentile" : "Description of the metric",
    "api_alter_partitions_with_environment_context_95thpercentile" : "Description of the metric",
    "api_alter_partitions_with_environment_context_98thpercentile" : "Description of the metric",
    "api_alter_partitions_with_environment_context_99thpercentile" : "Description of the metric",
    "api_alter_partitions_with_environment_context_999thpercentile" : "Description of the metric",
    "api_alter_table_count" : "Description of the metric",
    "api_alter_table_mean_rate" : "Description of the metric",
    "api_alter_table_1min_rate" : "Description of the metric",
    "api_alter_table_5min_rate" : "Description of the metric",
    "api_alter_table_15min_rate" : "Description of the metric",
    "api_alter_table_mean" : "Description of the metric",
    "api_alter_table_min" : "Description of the metric",
    "api_alter_table_max" : "Description of the metric",
    "api_alter_table_median" : "Description of the metric",
    "api_alter_table_stddev" : "Description of the metric",
    "api_alter_table_75thpercentile" : "Description of the metric",
    "api_alter_table_95thpercentile" : "Description of the metric",
    "api_alter_table_98thpercentile" : "Description of the metric",
    "api_alter_table_99thpercentile" : "Description of the metric",
    "api_alter_table_999thpercentile" : "Description of the metric",
    "api_alter_table_with_environment_context_count" : "Description of the metric",
    "api_alter_table_with_environment_context_mean_rate" : "Description of the metric",
    "api_alter_table_with_environment_context_1min_rate" : "Description of the metric",
    "api_alter_table_with_environment_context_5min_rate" : "Description of the metric",
    "api_alter_table_with_environment_context_15min_rate" : "Description of the metric",
    "api_alter_table_with_environment_context_mean" : "Description of the metric",
    "api_alter_table_with_environment_context_min" : "Description of the metric",
    "api_alter_table_with_environment_context_max" : "Description of the metric",
    "api_alter_table_with_environment_context_median" : "Description of the metric",
    "api_alter_table_with_environment_context_stddev" : "Description of the metric",
    "api_alter_table_with_environment_context_75thpercentile" : "Description of the metric",
    "api_alter_table_with_environment_context_95thpercentile" : "Description of the metric",
    "api_alter_table_with_environment_context_98thpercentile" : "Description of the metric",
    "api_alter_table_with_environment_context_99thpercentile" : "Description of the metric",
    "api_alter_table_with_environment_context_999thpercentile" : "Description of the metric",
    "api_check_lock_count" : "Description of the metric",
    "api_check_lock_mean_rate" : "Description of the metric",
    "api_check_lock_1min_rate" : "Description of the metric",
    "api_check_lock_5min_rate" : "Description of the metric",
    "api_check_lock_15min_rate" : "Description of the metric",
    "api_check_lock_mean" : "Description of the metric",
    "api_check_lock_min" : "Description of the metric",
    "api_check_lock_max" : "Description of the metric",
    "api_check_lock_median" : "Description of the metric",
    "api_check_lock_stddev" : "Description of the metric",
    "api_check_lock_75thpercentile" : "Description of the metric",
    "api_check_lock_95thpercentile" : "Description of the metric",
    "api_check_lock_98thpercentile" : "Description of the metric",
    "api_check_lock_99thpercentile" : "Description of the metric",
    "api_check_lock_999thpercentile" : "Description of the metric",
    "api_commit_txn_count" : "Description of the metric",
    "api_commit_txn_mean_rate" : "Description of the metric",
    "api_commit_txn_1min_rate" : "Description of the metric",
    "api_commit_txn_5min_rate" : "Description of the metric",
    "api_commit_txn_15min_rate" : "Description of the metric",
    "api_commit_txn_mean" : "Description of the metric",
    "api_commit_txn_min" : "Description of the metric",
    "api_commit_txn_max" : "Description of the metric",
    "api_commit_txn_median" : "Description of the metric",
    "api_commit_txn_stddev" : "Description of the metric",
    "api_commit_txn_75thpercentile" : "Description of the metric",
    "api_commit_txn_95thpercentile" : "Description of the metric",
    "api_commit_txn_98thpercentile" : "Description of the metric",
    "api_commit_txn_99thpercentile" : "Description of the metric",
    "api_commit_txn_999thpercentile" : "Description of the metric",
    "api_compile_count" : "Description of the metric",
    "api_compile_mean_rate" : "Description of the metric",
    "api_compile_1min_rate" : "Description of the metric",
    "api_compile_5min_rate" : "Description of the metric",
    "api_compile_15min_rate" : "Description of the metric",
    "api_compile_mean" : "Description of the metric",
    "api_compile_min" : "Description of the metric",
    "api_compile_max" : "Description of the metric",
    "api_compile_median" : "Description of the metric",
    "api_compile_stddev" : "Description of the metric",
    "api_compile_75thpercentile" : "Description of the metric",
    "api_compile_95thpercentile" : "Description of the metric",
    "api_compile_98thpercentile" : "Description of the metric",
    "api_compile_99thpercentile" : "Description of the metric",
    "api_compile_999thpercentile" : "Description of the metric",
    "api_create_database_count" : "Description of the metric",
    "api_create_database_mean_rate" : "Description of the metric",
    "api_create_database_1min_rate" : "Description of the metric",
    "api_create_database_5min_rate" : "Description of the metric",
    "api_create_database_15min_rate" : "Description of the metric",
    "api_create_database_mean" : "Description of the metric",
    "api_create_database_min" : "Description of the metric",
    "api_create_database_max" : "Description of the metric",
    "api_create_database_median" : "Description of the metric",
    "api_create_database_stddev" : "Description of the metric",
    "api_create_database_75thpercentile" : "Description of the metric",
    "api_create_database_95thpercentile" : "Description of the metric",
    "api_create_database_98thpercentile" : "Description of the metric",
    "api_create_database_99thpercentile" : "Description of the metric",
    "api_create_database_999thpercentile" : "Description of the metric",
    "api_create_function_count" : "Description of the metric",
    "api_create_function_mean_rate" : "Description of the metric",
    "api_create_function_1min_rate" : "Description of the metric",
    "api_create_function_5min_rate" : "Description of the metric",
    "api_create_function_15min_rate" : "Description of the metric",
    "api_create_function_mean" : "Description of the metric",
    "api_create_function_min" : "Description of the metric",
    "api_create_function_max" : "Description of the metric",
    "api_create_function_median" : "Description of the metric",
    "api_create_function_stddev" : "Description of the metric",
    "api_create_function_75thpercentile" : "Description of the metric",
    "api_create_function_95thpercentile" : "Description of the metric",
    "api_create_function_98thpercentile" : "Description of the metric",
    "api_create_function_99thpercentile" : "Description of the metric",
    "api_create_function_999thpercentile" : "Description of the metric",
    "api_create_table_count" : "Description of the metric",
    "api_create_table_mean_rate" : "Description of the metric",
    "api_create_table_1min_rate" : "Description of the metric",
    "api_create_table_5min_rate" : "Description of the metric",
    "api_create_table_15min_rate" : "Description of the metric",
    "api_create_table_mean" : "Description of the metric",
    "api_create_table_min" : "Description of the metric",
    "api_create_table_max" : "Description of the metric",
    "api_create_table_median" : "Description of the metric",
    "api_create_table_stddev" : "Description of the metric",
    "api_create_table_75thpercentile" : "Description of the metric",
    "api_create_table_95thpercentile" : "Description of the metric",
    "api_create_table_98thpercentile" : "Description of the metric",
    "api_create_table_99thpercentile" : "Description of the metric",
    "api_create_table_999thpercentile" : "Description of the metric",
    "api_create_table_with_environment_context_count" : "Description of the metric",
    "api_create_table_with_environment_context_mean_rate" : "Description of the metric",
    "api_create_table_with_environment_context_1min_rate" : "Description of the metric",
    "api_create_table_with_environment_context_5min_rate" : "Description of the metric",
    "api_create_table_with_environment_context_15min_rate" : "Description of the metric",
    "api_create_table_with_environment_context_mean" : "Description of the metric",
    "api_create_table_with_environment_context_min" : "Description of the metric",
    "api_create_table_with_environment_context_max" : "Description of the metric",
    "api_create_table_with_environment_context_median" : "Description of the metric",
    "api_create_table_with_environment_context_stddev" : "Description of the metric",
    "api_create_table_with_environment_context_75thpercentile" : "Description of the metric",
    "api_create_table_with_environment_context_95thpercentile" : "Description of the metric",
    "api_create_table_with_environment_context_98thpercentile" : "Description of the metric",
    "api_create_table_with_environment_context_99thpercentile" : "Description of the metric",
    "api_create_table_with_environment_context_999thpercentile" : "Description of the metric",
    "api_doAuthorization_count" : "Description of the metric",
    "api_doAuthorization_mean_rate" : "Description of the metric",
    "api_doAuthorization_1min_rate" : "Description of the metric",
    "api_doAuthorization_5min_rate" : "Description of the metric",
    "api_doAuthorization_15min_rate" : "Description of the metric",
    "api_doAuthorization_mean" : "Description of the metric",
    "api_doAuthorization_min" : "Description of the metric",
    "api_doAuthorization_max" : "Description of the metric",
    "api_doAuthorization_median" : "Description of the metric",
    "api_doAuthorization_stddev" : "Description of the metric",
    "api_doAuthorization_75thpercentile" : "Description of the metric",
    "api_doAuthorization_95thpercentile" : "Description of the metric",
    "api_doAuthorization_98thpercentile" : "Description of the metric",
    "api_doAuthorization_99thpercentile" : "Description of the metric",
    "api_doAuthorization_999thpercentile" : "Description of the metric",
    "api_drop_database_count" : "Description of the metric",
    "api_drop_database_mean_rate" : "Description of the metric",
    "api_drop_database_1min_rate" : "Description of the metric",
    "api_drop_database_5min_rate" : "Description of the metric",
    "api_drop_database_15min_rate" : "Description of the metric",
    "api_drop_database_mean" : "Description of the metric",
    "api_drop_database_min" : "Description of the metric",
    "api_drop_database_max" : "Description of the metric",
    "api_drop_database_median" : "Description of the metric",
    "api_drop_database_stddev" : "Description of the metric",
    "api_drop_database_75thpercentile" : "Description of the metric",
    "api_drop_database_95thpercentile" : "Description of the metric",
    "api_drop_database_98thpercentile" : "Description of the metric",
    "api_drop_database_99thpercentile" : "Description of the metric",
    "api_drop_database_999thpercentile" : "Description of the metric",
    "api_drop_table_count" : "Description of the metric",
    "api_drop_table_mean_rate" : "Description of the metric",
    "api_drop_table_1min_rate" : "Description of the metric",
    "api_drop_table_5min_rate" : "Description of the metric",
    "api_drop_table_15min_rate" : "Description of the metric",
    "api_drop_table_mean" : "Description of the metric",
    "api_drop_table_min" : "Description of the metric",
    "api_drop_table_max" : "Description of the metric",
    "api_drop_table_median" : "Description of the metric",
    "api_drop_table_stddev" : "Description of the metric",
    "api_drop_table_75thpercentile" : "Description of the metric",
    "api_drop_table_95thpercentile" : "Description of the metric",
    "api_drop_table_98thpercentile" : "Description of the metric",
    "api_drop_table_99thpercentile" : "Description of the metric",
    "api_drop_table_999thpercentile" : "Description of the metric",
    "api_drop_table_with_environment_context_count" : "Description of the metric",
    "api_drop_table_with_environment_context_mean_rate" : "Description of the metric",
    "api_drop_table_with_environment_context_1min_rate" : "Description of the metric",
    "api_drop_table_with_environment_context_5min_rate" : "Description of the metric",
    "api_drop_table_with_environment_context_15min_rate" : "Description of the metric",
    "api_drop_table_with_environment_context_mean" : "Description of the metric",
    "api_drop_table_with_environment_context_min" : "Description of the metric",
    "api_drop_table_with_environment_context_max" : "Description of the metric",
    "api_drop_table_with_environment_context_median" : "Description of the metric",
    "api_drop_table_with_environment_context_stddev" : "Description of the metric",
    "api_drop_table_with_environment_context_75thpercentile" : "Description of the metric",
    "api_drop_table_with_environment_context_95thpercentile" : "Description of the metric",
    "api_drop_table_with_environment_context_98thpercentile" : "Description of the metric",
    "api_drop_table_with_environment_context_99thpercentile" : "Description of the metric",
    "api_drop_table_with_environment_context_999thpercentile" : "Description of the metric",
    "api_flushCache_count" : "Description of the metric",
    "api_flushCache_mean_rate" : "Description of the metric",
    "api_flushCache_1min_rate" : "Description of the metric",
    "api_flushCache_5min_rate" : "Description of the metric",
    "api_flushCache_15min_rate" : "Description of the metric",
    "api_flushCache_mean" : "Description of the metric",
    "api_flushCache_min" : "Description of the metric",
    "api_flushCache_max" : "Description of the metric",
    "api_flushCache_median" : "Description of the metric",
    "api_flushCache_stddev" : "Description of the metric",
    "api_flushCache_75thpercentile" : "Description of the metric",
    "api_flushCache_95thpercentile" : "Description of the metric",
    "api_flushCache_98thpercentile" : "Description of the metric",
    "api_flushCache_99thpercentile" : "Description of the metric",
    "api_flushCache_999thpercentile" : "Description of the metric",
    "api_getMetaConf_count" : "Description of the metric",
    "api_getMetaConf_mean_rate" : "Description of the metric",
    "api_getMetaConf_1min_rate" : "Description of the metric",
    "api_getMetaConf_5min_rate" : "Description of the metric",
    "api_getMetaConf_15min_rate" : "Description of the metric",
    "api_getMetaConf_mean" : "Description of the metric",
    "api_getMetaConf_min" : "Description of the metric",
    "api_getMetaConf_max" : "Description of the metric",
    "api_getMetaConf_median" : "Description of the metric",
    "api_getMetaConf_stddev" : "Description of the metric",
    "api_getMetaConf_75thpercentile" : "Description of the metric",
    "api_getMetaConf_95thpercentile" : "Description of the metric",
    "api_getMetaConf_98thpercentile" : "Description of the metric",
    "api_getMetaConf_99thpercentile" : "Description of the metric",
    "api_getMetaConf_999thpercentile" : "Description of the metric",
    "api_get_aggr_stats_for_count" : "Description of the metric",
    "api_get_aggr_stats_for_mean_rate" : "Description of the metric",
    "api_get_aggr_stats_for_1min_rate" : "Description of the metric",
    "api_get_aggr_stats_for_5min_rate" : "Description of the metric",
    "api_get_aggr_stats_for_15min_rate" : "Description of the metric",
    "api_get_aggr_stats_for_mean" : "Description of the metric",
    "api_get_aggr_stats_for_min" : "Description of the metric",
    "api_get_aggr_stats_for_max" : "Description of the metric",
    "api_get_aggr_stats_for_median" : "Description of the metric",
    "api_get_aggr_stats_for_stddev" : "Description of the metric",
    "api_get_aggr_stats_for_75thpercentile" : "Description of the metric",
    "api_get_aggr_stats_for_95thpercentile" : "Description of the metric",
    "api_get_aggr_stats_for_98thpercentile" : "Description of the metric",
    "api_get_aggr_stats_for_99thpercentile" : "Description of the metric",
    "api_get_aggr_stats_for_999thpercentile" : "Description of the metric",
    "api_get_all_databases_count" : "Description of the metric",
    "api_get_all_databases_mean_rate" : "Description of the metric",
    "api_get_all_databases_1min_rate" : "Description of the metric",
    "api_get_all_databases_5min_rate" : "Description of the metric",
    "api_get_all_databases_15min_rate" : "Description of the metric",
    "api_get_all_databases_mean" : "Description of the metric",
    "api_get_all_databases_min" : "Description of the metric",
    "api_get_all_databases_max" : "Description of the metric",
    "api_get_all_databases_median" : "Description of the metric",
    "api_get_all_databases_stddev" : "Description of the metric",
    "api_get_all_databases_75thpercentile" : "Description of the metric",
    "api_get_all_databases_95thpercentile" : "Description of the metric",
    "api_get_all_databases_98thpercentile" : "Description of the metric",
    "api_get_all_databases_99thpercentile" : "Description of the metric",
    "api_get_all_databases_999thpercentile" : "Description of the metric",
    "api_get_all_functions_count" : "Description of the metric",
    "api_get_all_functions_mean_rate" : "Description of the metric",
    "api_get_all_functions_1min_rate" : "Description of the metric",
    "api_get_all_functions_5min_rate" : "Description of the metric",
    "api_get_all_functions_15min_rate" : "Description of the metric",
    "api_get_all_functions_mean" : "Description of the metric",
    "api_get_all_functions_min" : "Description of the metric",
    "api_get_all_functions_max" : "Description of the metric",
    "api_get_all_functions_median" : "Description of the metric",
    "api_get_all_functions_stddev" : "Description of the metric",
    "api_get_all_functions_75thpercentile" : "Description of the metric",
    "api_get_all_functions_95thpercentile" : "Description of the metric",
    "api_get_all_functions_98thpercentile" : "Description of the metric",
    "api_get_all_functions_99thpercentile" : "Description of the metric",
    "api_get_all_functions_999thpercentile" : "Description of the metric",
    "api_get_all_tables_count" : "Description of the metric",
    "api_get_all_tables_mean_rate" : "Description of the metric",
    "api_get_all_tables_1min_rate" : "Description of the metric",
    "api_get_all_tables_5min_rate" : "Description of the metric",
    "api_get_all_tables_15min_rate" : "Description of the metric",
    "api_get_all_tables_mean" : "Description of the metric",
    "api_get_all_tables_min" : "Description of the metric",
    "api_get_all_tables_max" : "Description of the metric",
    "api_get_all_tables_median" : "Description of the metric",
    "api_get_all_tables_stddev" : "Description of the metric",
    "api_get_all_tables_75thpercentile" : "Description of the metric",
    "api_get_all_tables_95thpercentile" : "Description of the metric",
    "api_get_all_tables_98thpercentile" : "Description of the metric",
    "api_get_all_tables_99thpercentile" : "Description of the metric",
    "api_get_all_tables_999thpercentile" : "Description of the metric",
    "api_get_database_count" : "Description of the metric",
    "api_get_database_mean_rate" : "Description of the metric",
    "api_get_database_1min_rate" : "Description of the metric",
    "api_get_database_5min_rate" : "Description of the metric",
    "api_get_database_15min_rate" : "Description of the metric",
    "api_get_database_mean" : "Description of the metric",
    "api_get_database_min" : "Description of the metric",
    "api_get_database_max" : "Description of the metric",
    "api_get_database_median" : "Description of the metric",
    "api_get_database_stddev" : "Description of the metric",
    "api_get_database_75thpercentile" : "Description of the metric",
    "api_get_database_95thpercentile" : "Description of the metric",
    "api_get_database_98thpercentile" : "Description of the metric",
    "api_get_database_99thpercentile" : "Description of the metric",
    "api_get_database_999thpercentile" : "Description of the metric",
    "api_get_functions_count" : "Description of the metric",
    "api_get_functions_mean_rate" : "Description of the metric",
    "api_get_functions_1min_rate" : "Description of the metric",
    "api_get_functions_5min_rate" : "Description of the metric",
    "api_get_functions_15min_rate" : "Description of the metric",
    "api_get_functions_mean" : "Description of the metric",
    "api_get_functions_min" : "Description of the metric",
    "api_get_functions_max" : "Description of the metric",
    "api_get_functions_median" : "Description of the metric",
    "api_get_functions_stddev" : "Description of the metric",
    "api_get_functions_75thpercentile" : "Description of the metric",
    "api_get_functions_95thpercentile" : "Description of the metric",
    "api_get_functions_98thpercentile" : "Description of the metric",
    "api_get_functions_99thpercentile" : "Description of the metric",
    "api_get_functions_999thpercentile" : "Description of the metric",
    "api_get_open_txns_count" : "Description of the metric",
    "api_get_open_txns_mean_rate" : "Description of the metric",
    "api_get_open_txns_1min_rate" : "Description of the metric",
    "api_get_open_txns_5min_rate" : "Description of the metric",
    "api_get_open_txns_15min_rate" : "Description of the metric",
    "api_get_open_txns_mean" : "Description of the metric",
    "api_get_open_txns_min" : "Description of the metric",
    "api_get_open_txns_max" : "Description of the metric",
    "api_get_open_txns_median" : "Description of the metric",
    "api_get_open_txns_stddev" : "Description of the metric",
    "api_get_open_txns_75thpercentile" : "Description of the metric",
    "api_get_open_txns_95thpercentile" : "Description of the metric",
    "api_get_open_txns_98thpercentile" : "Description of the metric",
    "api_get_open_txns_99thpercentile" : "Description of the metric",
    "api_get_open_txns_999thpercentile" : "Description of the metric",
    "api_get_partition_names_count" : "Description of the metric",
    "api_get_partition_names_mean_rate" : "Description of the metric",
    "api_get_partition_names_1min_rate" : "Description of the metric",
    "api_get_partition_names_5min_rate" : "Description of the metric",
    "api_get_partition_names_15min_rate" : "Description of the metric",
    "api_get_partition_names_mean" : "Description of the metric",
    "api_get_partition_names_min" : "Description of the metric",
    "api_get_partition_names_max" : "Description of the metric",
    "api_get_partition_names_median" : "Description of the metric",
    "api_get_partition_names_stddev" : "Description of the metric",
    "api_get_partition_names_75thpercentile" : "Description of the metric",
    "api_get_partition_names_95thpercentile" : "Description of the metric",
    "api_get_partition_names_98thpercentile" : "Description of the metric",
    "api_get_partition_names_99thpercentile" : "Description of the metric",
    "api_get_partition_names_999thpercentile" : "Description of the metric",
    "api_get_partition_with_auth_count" : "Description of the metric",
    "api_get_partition_with_auth_mean_rate" : "Description of the metric",
    "api_get_partition_with_auth_1min_rate" : "Description of the metric",
    "api_get_partition_with_auth_5min_rate" : "Description of the metric",
    "api_get_partition_with_auth_15min_rate" : "Description of the metric",
    "api_get_partition_with_auth_mean" : "Description of the metric",
    "api_get_partition_with_auth_min" : "Description of the metric",
    "api_get_partition_with_auth_max" : "Description of the metric",
    "api_get_partition_with_auth_median" : "Description of the metric",
    "api_get_partition_with_auth_stddev" : "Description of the metric",
    "api_get_partition_with_auth_75thpercentile" : "Description of the metric",
    "api_get_partition_with_auth_95thpercentile" : "Description of the metric",
    "api_get_partition_with_auth_98thpercentile" : "Description of the metric",
    "api_get_partition_with_auth_99thpercentile" : "Description of the metric",
    "api_get_partition_with_auth_999thpercentile" : "Description of the metric",
    "api_get_partitions_count" : "Description of the metric",
    "api_get_partitions_mean_rate" : "Description of the metric",
    "api_get_partitions_1min_rate" : "Description of the metric",
    "api_get_partitions_5min_rate" : "Description of the metric",
    "api_get_partitions_15min_rate" : "Description of the metric",
    "api_get_partitions_mean" : "Description of the metric",
    "api_get_partitions_min" : "Description of the metric",
    "api_get_partitions_max" : "Description of the metric",
    "api_get_partitions_median" : "Description of the metric",
    "api_get_partitions_stddev" : "Description of the metric",
    "api_get_partitions_75thpercentile" : "Description of the metric",
    "api_get_partitions_95thpercentile" : "Description of the metric",
    "api_get_partitions_98thpercentile" : "Description of the metric",
    "api_get_partitions_99thpercentile" : "Description of the metric",
    "api_get_partitions_999thpercentile" : "Description of the metric",
    "api_get_partitions_by_expr_count" : "Description of the metric",
    "api_get_partitions_by_expr_mean_rate" : "Description of the metric",
    "api_get_partitions_by_expr_1min_rate" : "Description of the metric",
    "api_get_partitions_by_expr_5min_rate" : "Description of the metric",
    "api_get_partitions_by_expr_15min_rate" : "Description of the metric",
    "api_get_partitions_by_expr_mean" : "Description of the metric",
    "api_get_partitions_by_expr_min" : "Description of the metric",
    "api_get_partitions_by_expr_max" : "Description of the metric",
    "api_get_partitions_by_expr_median" : "Description of the metric",
    "api_get_partitions_by_expr_stddev" : "Description of the metric",
    "api_get_partitions_by_expr_75thpercentile" : "Description of the metric",
    "api_get_partitions_by_expr_95thpercentile" : "Description of the metric",
    "api_get_partitions_by_expr_98thpercentile" : "Description of the metric",
    "api_get_partitions_by_expr_99thpercentile" : "Description of the metric",
    "api_get_partitions_by_expr_999thpercentile" : "Description of the metric",
    "api_get_partitions_ps_with_auth_count" : "Description of the metric",
    "api_get_partitions_ps_with_auth_mean_rate" : "Description of the metric",
    "api_get_partitions_ps_with_auth_1min_rate" : "Description of the metric",
    "api_get_partitions_ps_with_auth_5min_rate" : "Description of the metric",
    "api_get_partitions_ps_with_auth_15min_rate" : "Description of the metric",
    "api_get_partitions_ps_with_auth_mean" : "Description of the metric",
    "api_get_partitions_ps_with_auth_min" : "Description of the metric",
    "api_get_partitions_ps_with_auth_max" : "Description of the metric",
    "api_get_partitions_ps_with_auth_median" : "Description of the metric",
    "api_get_partitions_ps_with_auth_stddev" : "Description of the metric",
    "api_get_partitions_ps_with_auth_75thpercentile" : "Description of the metric",
    "api_get_partitions_ps_with_auth_95thpercentile" : "Description of the metric",
    "api_get_partitions_ps_with_auth_98thpercentile" : "Description of the metric",
    "api_get_partitions_ps_with_auth_99thpercentile" : "Description of the metric",
    "api_get_partitions_ps_with_auth_999thpercentile" : "Description of the metric",
    "api_get_partitions_with_auth_count" : "Description of the metric",
    "api_get_partitions_with_auth_mean_rate" : "Description of the metric",
    "api_get_partitions_with_auth_1min_rate" : "Description of the metric",
    "api_get_partitions_with_auth_5min_rate" : "Description of the metric",
    "api_get_partitions_with_auth_15min_rate" : "Description of the metric",
    "api_get_partitions_with_auth_mean" : "Description of the metric",
    "api_get_partitions_with_auth_min" : "Description of the metric",
    "api_get_partitions_with_auth_max" : "Description of the metric",
    "api_get_partitions_with_auth_median" : "Description of the metric",
    "api_get_partitions_with_auth_stddev" : "Description of the metric",
    "api_get_partitions_with_auth_75thpercentile" : "Description of the metric",
    "api_get_partitions_with_auth_95thpercentile" : "Description of the metric",
    "api_get_partitions_with_auth_98thpercentile" : "Description of the metric",
    "api_get_partitions_with_auth_99thpercentile" : "Description of the metric",
    "api_get_partitions_with_auth_999thpercentile" : "Description of the metric",
    "api_get_table_count" : "Description of the metric",
    "api_get_table_mean_rate" : "Description of the metric",
    "api_get_table_1min_rate" : "Description of the metric",
    "api_get_table_5min_rate" : "Description of the metric",
    "api_get_table_15min_rate" : "Description of the metric",
    "api_get_table_mean" : "Description of the metric",
    "api_get_table_min" : "Description of the metric",
    "api_get_table_max" : "Description of the metric",
    "api_get_table_median" : "Description of the metric",
    "api_get_table_stddev" : "Description of the metric",
    "api_get_table_75thpercentile" : "Description of the metric",
    "api_get_table_95thpercentile" : "Description of the metric",
    "api_get_table_98thpercentile" : "Description of the metric",
    "api_get_table_99thpercentile" : "Description of the metric",
    "api_get_table_999thpercentile" : "Description of the metric",
    "api_get_tables_count" : "Description of the metric",
    "api_get_tables_mean_rate" : "Description of the metric",
    "api_get_tables_1min_rate" : "Description of the metric",
    "api_get_tables_5min_rate" : "Description of the metric",
    "api_get_tables_15min_rate" : "Description of the metric",
    "api_get_tables_mean" : "Description of the metric",
    "api_get_tables_min" : "Description of the metric",
    "api_get_tables_max" : "Description of the metric",
    "api_get_tables_median" : "Description of the metric",
    "api_get_tables_stddev" : "Description of the metric",
    "api_get_tables_75thpercentile" : "Description of the metric",
    "api_get_tables_95thpercentile" : "Description of the metric",
    "api_get_tables_98thpercentile" : "Description of the metric",
    "api_get_tables_99thpercentile" : "Description of the metric",
    "api_get_tables_999thpercentile" : "Description of the metric",
    "api_heartbeat_count" : "Description of the metric",
    "api_heartbeat_mean_rate" : "Description of the metric",
    "api_heartbeat_1min_rate" : "Description of the metric",
    "api_heartbeat_5min_rate" : "Description of the metric",
    "api_heartbeat_15min_rate" : "Description of the metric",
    "api_heartbeat_mean" : "Description of the metric",
    "api_heartbeat_min" : "Description of the metric",
    "api_heartbeat_max" : "Description of the metric",
    "api_heartbeat_median" : "Description of the metric",
    "api_heartbeat_stddev" : "Description of the metric",
    "api_heartbeat_75thpercentile" : "Description of the metric",
    "api_heartbeat_95thpercentile" : "Description of the metric",
    "api_heartbeat_98thpercentile" : "Description of the metric",
    "api_heartbeat_99thpercentile" : "Description of the metric",
    "api_heartbeat_999thpercentile" : "Description of the metric",
    "api_hs2_operation_INITIALIZED_count" : "Description of the metric",
    "api_hs2_operation_INITIALIZED_mean_rate" : "Description of the metric",
    "api_hs2_operation_INITIALIZED_1min_rate" : "Description of the metric",
    "api_hs2_operation_INITIALIZED_5min_rate" : "Description of the metric",
    "api_hs2_operation_INITIALIZED_15min_rate" : "Description of the metric",
    "api_hs2_operation_INITIALIZED_mean" : "Description of the metric",
    "api_hs2_operation_INITIALIZED_min" : "Description of the metric",
    "api_hs2_operation_INITIALIZED_max" : "Description of the metric",
    "api_hs2_operation_INITIALIZED_median" : "Description of the metric",
    "api_hs2_operation_INITIALIZED_stddev" : "Description of the metric",
    "api_hs2_operation_INITIALIZED_75thpercentile" : "Description of the metric",
    "api_hs2_operation_INITIALIZED_95thpercentile" : "Description of the metric",
    "api_hs2_operation_INITIALIZED_98thpercentile" : "Description of the metric",
    "api_hs2_operation_INITIALIZED_99thpercentile" : "Description of the metric",
    "api_hs2_operation_INITIALIZED_999thpercentile" : "Description of the metric",
    "api_hs2_operation_PENDING_count" : "Description of the metric",
    "api_hs2_operation_PENDING_mean_rate" : "Description of the metric",
    "api_hs2_operation_PENDING_1min_rate" : "Description of the metric",
    "api_hs2_operation_PENDING_5min_rate" : "Description of the metric",
    "api_hs2_operation_PENDING_15min_rate" : "Description of the metric",
    "api_hs2_operation_PENDING_mean" : "Description of the metric",
    "api_hs2_operation_PENDING_min" : "Description of the metric",
    "api_hs2_operation_PENDING_max" : "Description of the metric",
    "api_hs2_operation_PENDING_median" : "Description of the metric",
    "api_hs2_operation_PENDING_stddev" : "Description of the metric",
    "api_hs2_operation_PENDING_75thpercentile" : "Description of the metric",
    "api_hs2_operation_PENDING_95thpercentile" : "Description of the metric",
    "api_hs2_operation_PENDING_98thpercentile" : "Description of the metric",
    "api_hs2_operation_PENDING_99thpercentile" : "Description of the metric",
    "api_hs2_operation_PENDING_999thpercentile" : "Description of the metric",
    "api_hs2_operation_RUNNING_count" : "Description of the metric",
    "api_hs2_operation_RUNNING_mean_rate" : "Description of the metric",
    "api_hs2_operation_RUNNING_1min_rate" : "Description of the metric",
    "api_hs2_operation_RUNNING_5min_rate" : "Description of the metric",
    "api_hs2_operation_RUNNING_15min_rate" : "Description of the metric",
    "api_hs2_operation_RUNNING_mean" : "Description of the metric",
    "api_hs2_operation_RUNNING_min" : "Description of the metric",
    "api_hs2_operation_RUNNING_max" : "Description of the metric",
    "api_hs2_operation_RUNNING_median" : "Description of the metric",
    "api_hs2_operation_RUNNING_stddev" : "Description of the metric",
    "api_hs2_operation_RUNNING_75thpercentile" : "Description of the metric",
    "api_hs2_operation_RUNNING_95thpercentile" : "Description of the metric",
    "api_hs2_operation_RUNNING_98thpercentile" : "Description of the metric",
    "api_hs2_operation_RUNNING_99thpercentile" : "Description of the metric",
    "api_hs2_operation_RUNNING_999thpercentile" : "Description of the metric",
    "api_hs2_sql_operation_PENDING_count" : "Description of the metric",
    "api_hs2_sql_operation_PENDING_mean_rate" : "Description of the metric",
    "api_hs2_sql_operation_PENDING_1min_rate" : "Description of the metric",
    "api_hs2_sql_operation_PENDING_5min_rate" : "Description of the metric",
    "api_hs2_sql_operation_PENDING_15min_rate" : "Description of the metric",
    "api_hs2_sql_operation_PENDING_mean" : "Description of the metric",
    "api_hs2_sql_operation_PENDING_min" : "Description of the metric",
    "api_hs2_sql_operation_PENDING_max" : "Description of the metric",
    "api_hs2_sql_operation_PENDING_median" : "Description of the metric",
    "api_hs2_sql_operation_PENDING_stddev" : "Description of the metric",
    "api_hs2_sql_operation_PENDING_75thpercentile" : "Description of the metric",
    "api_hs2_sql_operation_PENDING_95thpercentile" : "Description of the metric",
    "api_hs2_sql_operation_PENDING_98thpercentile" : "Description of the metric",
    "api_hs2_sql_operation_PENDING_99thpercentile" : "Description of the metric",
    "api_hs2_sql_operation_PENDING_999thpercentile" : "Description of the metric",
    "api_hs2_sql_operation_RUNNING_count" : "Description of the metric",
    "api_hs2_sql_operation_RUNNING_mean_rate" : "Description of the metric",
    "api_hs2_sql_operation_RUNNING_1min_rate" : "Description of the metric",
    "api_hs2_sql_operation_RUNNING_5min_rate" : "Description of the metric",
    "api_hs2_sql_operation_RUNNING_15min_rate" : "Description of the metric",
    "api_hs2_sql_operation_RUNNING_mean" : "Description of the metric",
    "api_hs2_sql_operation_RUNNING_min" : "Description of the metric",
    "api_hs2_sql_operation_RUNNING_max" : "Description of the metric",
    "api_hs2_sql_operation_RUNNING_median" : "Description of the metric",
    "api_hs2_sql_operation_RUNNING_stddev" : "Description of the metric",
    "api_hs2_sql_operation_RUNNING_75thpercentile" : "Description of the metric",
    "api_hs2_sql_operation_RUNNING_95thpercentile" : "Description of the metric",
    "api_hs2_sql_operation_RUNNING_98thpercentile" : "Description of the metric",
    "api_hs2_sql_operation_RUNNING_99thpercentile" : "Description of the metric",
    "api_hs2_sql_operation_RUNNING_999thpercentile" : "Description of the metric",
    "api_init_count" : "Description of the metric",
    "api_init_mean_rate" : "Description of the metric",
    "api_init_1min_rate" : "Description of the metric",
    "api_init_5min_rate" : "Description of the metric",
    "api_init_15min_rate" : "Description of the metric",
    "api_init_mean" : "Description of the metric",
    "api_init_min" : "Description of the metric",
    "api_init_max" : "Description of the metric",
    "api_init_median" : "Description of the metric",
    "api_init_stddev" : "Description of the metric",
    "api_init_75thpercentile" : "Description of the metric",
    "api_init_95thpercentile" : "Description of the metric",
    "api_init_98thpercentile" : "Description of the metric",
    "api_init_99thpercentile" : "Description of the metric",
    "api_init_999thpercentile" : "Description of the metric",
    "api_lock_count" : "Description of the metric",
    "api_lock_mean_rate" : "Description of the metric",
    "api_lock_1min_rate" : "Description of the metric",
    "api_lock_5min_rate" : "Description of the metric",
    "api_lock_15min_rate" : "Description of the metric",
    "api_lock_mean" : "Description of the metric",
    "api_lock_min" : "Description of the metric",
    "api_lock_max" : "Description of the metric",
    "api_lock_median" : "Description of the metric",
    "api_lock_stddev" : "Description of the metric",
    "api_lock_75thpercentile" : "Description of the metric",
    "api_lock_95thpercentile" : "Description of the metric",
    "api_lock_98thpercentile" : "Description of the metric",
    "api_lock_99thpercentile" : "Description of the metric",
    "api_lock_999thpercentile" : "Description of the metric",
    "api_open_txns_count" : "Description of the metric",
    "api_open_txns_mean_rate" : "Description of the metric",
    "api_open_txns_1min_rate" : "Description of the metric",
    "api_open_txns_5min_rate" : "Description of the metric",
    "api_open_txns_15min_rate" : "Description of the metric",
    "api_open_txns_mean" : "Description of the metric",
    "api_open_txns_min" : "Description of the metric",
    "api_open_txns_max" : "Description of the metric",
    "api_open_txns_median" : "Description of the metric",
    "api_open_txns_stddev" : "Description of the metric",
    "api_open_txns_75thpercentile" : "Description of the metric",
    "api_open_txns_95thpercentile" : "Description of the metric",
    "api_open_txns_98thpercentile" : "Description of the metric",
    "api_open_txns_99thpercentile" : "Description of the metric",
    "api_open_txns_999thpercentile" : "Description of the metric",
    "api_optimizer_count" : "Description of the metric",
    "api_optimizer_mean_rate" : "Description of the metric",
    "api_optimizer_1min_rate" : "Description of the metric",
    "api_optimizer_5min_rate" : "Description of the metric",
    "api_optimizer_15min_rate" : "Description of the metric",
    "api_optimizer_mean" : "Description of the metric",
    "api_optimizer_min" : "Description of the metric",
    "api_optimizer_max" : "Description of the metric",
    "api_optimizer_median" : "Description of the metric",
    "api_optimizer_stddev" : "Description of the metric",
    "api_optimizer_75thpercentile" : "Description of the metric",
    "api_optimizer_95thpercentile" : "Description of the metric",
    "api_optimizer_98thpercentile" : "Description of the metric",
    "api_optimizer_99thpercentile" : "Description of the metric",
    "api_optimizer_999thpercentile" : "Description of the metric",
    "api_parse_count" : "Description of the metric",
    "api_parse_mean_rate" : "Description of the metric",
    "api_parse_1min_rate" : "Description of the metric",
    "api_parse_5min_rate" : "Description of the metric",
    "api_parse_15min_rate" : "Description of the metric",
    "api_parse_mean" : "Description of the metric",
    "api_parse_min" : "Description of the metric",
    "api_parse_max" : "Description of the metric",
    "api_parse_median" : "Description of the metric",
    "api_parse_stddev" : "Description of the metric",
    "api_parse_75thpercentile" : "Description of the metric",
    "api_parse_95thpercentile" : "Description of the metric",
    "api_parse_98thpercentile" : "Description of the metric",
    "api_parse_99thpercentile" : "Description of the metric",
    "api_parse_999thpercentile" : "Description of the metric",
    "api_partition-retrieving_count" : "Description of the metric",
    "api_partition-retrieving_mean_rate" : "Description of the metric",
    "api_partition-retrieving_1min_rate" : "Description of the metric",
    "api_partition-retrieving_5min_rate" : "Description of the metric",
    "api_partition-retrieving_15min_rate" : "Description of the metric",
    "api_partition-retrieving_mean" : "Description of the metric",
    "api_partition-retrieving_min" : "Description of the metric",
    "api_partition-retrieving_max" : "Description of the metric",
    "api_partition-retrieving_median" : "Description of the metric",
    "api_partition-retrieving_stddev" : "Description of the metric",
    "api_partition-retrieving_75thpercentile" : "Description of the metric",
    "api_partition-retrieving_95thpercentile" : "Description of the metric",
    "api_partition-retrieving_98thpercentile" : "Description of the metric",
    "api_partition-retrieving_99thpercentile" : "Description of the metric",
    "api_partition-retrieving_999thpercentile" : "Description of the metric",
    "api_releaseLocks_count" : "Description of the metric",
    "api_releaseLocks_mean_rate" : "Description of the metric",
    "api_releaseLocks_1min_rate" : "Description of the metric",
    "api_releaseLocks_5min_rate" : "Description of the metric",
    "api_releaseLocks_15min_rate" : "Description of the metric",
    "api_releaseLocks_mean" : "Description of the metric",
    "api_releaseLocks_min" : "Description of the metric",
    "api_releaseLocks_max" : "Description of the metric",
    "api_releaseLocks_median" : "Description of the metric",
    "api_releaseLocks_stddev" : "Description of the metric",
    "api_releaseLocks_75thpercentile" : "Description of the metric",
    "api_releaseLocks_95thpercentile" : "Description of the metric",
    "api_releaseLocks_98thpercentile" : "Description of the metric",
    "api_releaseLocks_99thpercentile" : "Description of the metric",
    "api_releaseLocks_999thpercentile" : "Description of the metric",
    "api_runTasks_count" : "Description of the metric",
    "api_runTasks_mean_rate" : "Description of the metric",
    "api_runTasks_1min_rate" : "Description of the metric",
    "api_runTasks_5min_rate" : "Description of the metric",
    "api_runTasks_15min_rate" : "Description of the metric",
    "api_runTasks_mean" : "Description of the metric",
    "api_runTasks_min" : "Description of the metric",
    "api_runTasks_max" : "Description of the metric",
    "api_runTasks_median" : "Description of the metric",
    "api_runTasks_stddev" : "Description of the metric",
    "api_runTasks_75thpercentile" : "Description of the metric",
    "api_runTasks_95thpercentile" : "Description of the metric",
    "api_runTasks_98thpercentile" : "Description of the metric",
    "api_runTasks_99thpercentile" : "Description of the metric",
    "api_runTasks_999thpercentile" : "Description of the metric",
    "api_semanticAnalyze_count" : "Description of the metric",
    "api_semanticAnalyze_mean_rate" : "Description of the metric",
    "api_semanticAnalyze_1min_rate" : "Description of the metric",
    "api_semanticAnalyze_5min_rate" : "Description of the metric",
    "api_semanticAnalyze_15min_rate" : "Description of the metric",
    "api_semanticAnalyze_mean" : "Description of the metric",
    "api_semanticAnalyze_min" : "Description of the metric",
    "api_semanticAnalyze_max" : "Description of the metric",
    "api_semanticAnalyze_median" : "Description of the metric",
    "api_semanticAnalyze_stddev" : "Description of the metric",
    "api_semanticAnalyze_75thpercentile" : "Description of the metric",
    "api_semanticAnalyze_95thpercentile" : "Description of the metric",
    "api_semanticAnalyze_98thpercentile" : "Description of the metric",
    "api_semanticAnalyze_99thpercentile" : "Description of the metric",
    "api_semanticAnalyze_999thpercentile" : "Description of the metric",
    "api_serializePlan_count" : "Description of the metric",
    "api_serializePlan_mean_rate" : "Description of the metric",
    "api_serializePlan_1min_rate" : "Description of the metric",
    "api_serializePlan_5min_rate" : "Description of the metric",
    "api_serializePlan_15min_rate" : "Description of the metric",
    "api_serializePlan_mean" : "Description of the metric",
    "api_serializePlan_min" : "Description of the metric",
    "api_serializePlan_max" : "Description of the metric",
    "api_serializePlan_median" : "Description of the metric",
    "api_serializePlan_stddev" : "Description of the metric",
    "api_serializePlan_75thpercentile" : "Description of the metric",
    "api_serializePlan_95thpercentile" : "Description of the metric",
    "api_serializePlan_98thpercentile" : "Description of the metric",
    "api_serializePlan_99thpercentile" : "Description of the metric",
    "api_serializePlan_999thpercentile" : "Description of the metric",
    "api_show_locks_count" : "Description of the metric",
    "api_show_locks_mean_rate" : "Description of the metric",
    "api_show_locks_1min_rate" : "Description of the metric",
    "api_show_locks_5min_rate" : "Description of the metric",
    "api_show_locks_15min_rate" : "Description of the metric",
    "api_show_locks_mean" : "Description of the metric",
    "api_show_locks_min" : "Description of the metric",
    "api_show_locks_max" : "Description of the metric",
    "api_show_locks_median" : "Description of the metric",
    "api_show_locks_stddev" : "Description of the metric",
    "api_show_locks_75thpercentile" : "Description of the metric",
    "api_show_locks_95thpercentile" : "Description of the metric",
    "api_show_locks_98thpercentile" : "Description of the metric",
    "api_show_locks_99thpercentile" : "Description of the metric",
    "api_show_locks_999thpercentile" : "Description of the metric",
    "api_shutdown_count" : "Description of the metric",
    "api_shutdown_mean_rate" : "Description of the metric",
    "api_shutdown_1min_rate" : "Description of the metric",
    "api_shutdown_5min_rate" : "Description of the metric",
    "api_shutdown_15min_rate" : "Description of the metric",
    "api_shutdown_mean" : "Description of the metric",
    "api_shutdown_min" : "Description of the metric",
    "api_shutdown_max" : "Description of the metric",
    "api_shutdown_median" : "Description of the metric",
    "api_shutdown_stddev" : "Description of the metric",
    "api_shutdown_75thpercentile" : "Description of the metric",
    "api_shutdown_95thpercentile" : "Description of the metric",
    "api_shutdown_98thpercentile" : "Description of the metric",
    "api_shutdown_99thpercentile" : "Description of the metric",
    "api_shutdown_999thpercentile" : "Description of the metric",
    "api_truncate_table_count" : "Description of the metric",
    "api_truncate_table_mean_rate" : "Description of the metric",
    "api_truncate_table_1min_rate" : "Description of the metric",
    "api_truncate_table_5min_rate" : "Description of the metric",
    "api_truncate_table_15min_rate" : "Description of the metric",
    "api_truncate_table_mean" : "Description of the metric",
    "api_truncate_table_min" : "Description of the metric",
    "api_truncate_table_max" : "Description of the metric",
    "api_truncate_table_median" : "Description of the metric",
    "api_truncate_table_stddev" : "Description of the metric",
    "api_truncate_table_75thpercentile" : "Description of the metric",
    "api_truncate_table_95thpercentile" : "Description of the metric",
    "api_truncate_table_98thpercentile" : "Description of the metric",
    "api_truncate_table_99thpercentile" : "Description of the metric",
    "api_truncate_table_999thpercentile" : "Description of the metric",
    "api_unlock_count" : "Description of the metric",
    "api_unlock_mean_rate" : "Description of the metric",
    "api_unlock_1min_rate" : "Description of the metric",
    "api_unlock_5min_rate" : "Description of the metric",
    "api_unlock_15min_rate" : "Description of the metric",
    "api_unlock_mean" : "Description of the metric",
    "api_unlock_min" : "Description of the metric",
    "api_unlock_max" : "Description of the metric",
    "api_unlock_median" : "Description of the metric",
    "api_unlock_stddev" : "Description of the metric",
    "api_unlock_75thpercentile" : "Description of the metric",
    "api_unlock_95thpercentile" : "Description of the metric",
    "api_unlock_98thpercentile" : "Description of the metric",
    "api_unlock_99thpercentile" : "Description of the metric",
    "api_unlock_999thpercentile" : "Description of the metric"
}